[  {    "type": "delete",    "url": "/authorizations/current",    "title": "Delete a token",    "description": "<p>Delete Token</p>",    "group": "Auth",    "permission": [      {        "name": "JWT"      }    ],    "version": "0.1.0",    "header": {      "fields": {        "Header": [          {            "group": "Header",            "type": "String",            "optional": false,            "field": "Authorization",            "description": "<p>jwt-token</p>"          }        ]      },      "examples": [        {          "title": "Header-Example:",          "content": "{\n    \"Authorization\":\"Bearer eyJ0eXAiOiJKV1QiLCJhbGciOiJIUzI1NiJ9.eyJpc3MiOiJodHRwOi8vZGV2LXByb2plY3Q1LmRldi9hcGkvYXV0aG9yaXphdGlvbnMiLCJpYXQiOjE0OTk4Mjk0NzIsImV4cCI6MTQ5OTgzMzA3MiwibmJmIjoxNDk5ODI5NDcyLCJqdGkiOiJ5aVlTZVZrM2N0TFRMZG5oIiwic3ViIjoxfQ.TjQ4myEUA3-tfvckQfkk_hdI77uGt5W_ZqAOCLUWxmQ\"\n}",          "type": "json"        }      ]    },    "success": {      "examples": [        {          "title": "Success-Response:",          "content": "HTTP/1.1 204 No Content",          "type": "json"        }      ]    },    "filename": "./app/Http/Controllers/API/V1/AuthController.php",    "groupTitle": "Auth",    "name": "DeleteAuthorizationsCurrent"  },  {    "type": "post",    "url": "/authorizations",    "title": "Create a Token",    "description": "<p>Create a token</p>",    "group": "Auth",    "permission": [      {        "name": "none"      }    ],    "parameter": {      "fields": {        "Parameter": [          {            "group": "Parameter",            "type": "Email",            "optional": false,            "field": "email",            "description": "<p>email address</p>"          },          {            "group": "Parameter",            "type": "String",            "optional": false,            "field": "password",            "description": "<p>password</p>"          }        ]      }    },    "version": "0.1.0",    "success": {      "examples": [        {          "title": "Success-Response:",          "content": "HTTP/1.1 201 Created\n{\n     \"data\": {\n     \"id\": \"8b50372fd85f823c777cbccb29103776\",\n     \"token\": \"eyJ0eXAiOiJKV1QiLCJhbGciOiJIUzI1NiJ9.eyJpc3MiOiJodHRwOi8vZGV2LXByb2plY3Q1LmRldi9hcGkvYXV0aG9yaXphdGlvbnMiLCJpYXQiOjE0OTk4MjgyMjIsImV4cCI6MTQ5OTgzMTgyMiwibmJmIjoxNDk5ODI4MjIyLCJqdGkiOiJMbG8yR2dmRExyQ2l6N3pnIiwic3ViIjoxfQ.tSqYXGzbvUVOeDpN4Dx7x1lrSppGtXfFkg2S5Hhy4Dc\",\n     \"expired_at\": \"2017-07-12 03:57:02\",\n     \"refresh_expired_at\": \"2017-07-26 02:57:02\"\n     }\n}",          "type": "json"        }      ]    },    "filename": "./app/Http/Controllers/API/V1/AuthController.php",    "groupTitle": "Auth",    "name": "PostAuthorizations"  },  {    "type": "put",    "url": "/authorizations/current",    "title": "Refresh a token",    "description": "<p>Refresh Token</p>",    "group": "Auth",    "permission": [      {        "name": "JWT"      }    ],    "version": "0.1.0",    "header": {      "fields": {        "Header": [          {            "group": "Header",            "type": "String",            "optional": false,            "field": "Authorization",            "description": "<p>jwt-token</p>"          }        ]      },      "examples": [        {          "title": "Header-Example:",          "content": "{\n    \"Authorization\":\"Bearer eyJ0eXAiOiJKV1QiLCJhbGciOiJIUzI1NiJ9.eyJpc3MiOiJodHRwOi8vZGV2LXByb2plY3Q1LmRldi9hcGkvYXV0aG9yaXphdGlvbnMiLCJpYXQiOjE0OTk4Mjk0NzIsImV4cCI6MTQ5OTgzMzA3MiwibmJmIjoxNDk5ODI5NDcyLCJqdGkiOiJ5aVlTZVZrM2N0TFRMZG5oIiwic3ViIjoxfQ.TjQ4myEUA3-tfvckQfkk_hdI77uGt5W_ZqAOCLUWxmQ\"\n}",          "type": "json"        }      ]    },    "success": {      "examples": [        {          "title": "Success-Response:",          "content": "HTTP/1.1 201 OK\n {\n     \"data\": {\n     \"id\": \"6a3579d63fc542691720271ed94fff28\",\n     \"token\": \"eyJ0eXAiOiJKV1QiLCJhbGciOiJIUzI1NiJ9.eyJpc3MiOiJodHRwOi8vZGV2LXByb2plY3Q1LmRldi9hcGkvYXV0aG9yaXphdGlvbnMvY3VycmVudCIsImlhdCI6MTQ5OTgyOTQ3MiwiZXhwIjoxNDk5ODMzMDg3LCJuYmYiOjE0OTk4Mjk0ODcsImp0aSI6IkJHaGUzRlFab2JMd0NNZnIiLCJzdWIiOjF9.GxYNCHoKHFBniGgFj_KgD3Ntq0kBi85VR6c6GpxiD5o\",\n     \"expired_at\": \"2017-07-12 04:18:07\",\n     \"refresh_expired_at\": \"2017-07-26 03:17:52\"\n     }\n }",          "type": "json"        }      ]    },    "filename": "./app/Http/Controllers/API/V1/AuthController.php",    "groupTitle": "Auth",    "name": "PutAuthorizationsCurrent"  },  {    "type": "get",    "url": "/channels",    "title": "Channels List",    "description": "<p>Channels List</p>",    "group": "Channel",    "permission": [      {        "name": "none"      }    ],    "version": "0.1.0",    "success": {      "examples": [        {          "title": "Success-Response:",          "content": "HTTP/1.1 201 OK\n {\n     \"channels\": [\n         {\n         \"id\": 1,\n         \"name\": \"illum\",\n         \"slug\": \"illum\",\n         \"created_at\": \"2017-06-29 09:32:07\"\n         },\n         {\n         \"id\": 2,\n         \"name\": \"veniam\",\n         \"slug\": \"veniam\",\n         \"created_at\": \"2017-06-29 09:32:07\"\n         }\n     ]\n }",          "type": "json"        }      ]    },    "filename": "./app/Http/Controllers/API/V1/ChannelsController.php",    "groupTitle": "Channel",    "name": "GetChannels"  },  {    "type": "delete",    "url": "/replies/{reply}/favorites",    "title": "",    "description": "<p>Unfavorite a reply</p>",    "group": "Favorite",    "permission": [      {        "name": "JWT"      }    ],    "version": "0.1.0",    "success": {      "examples": [        {          "title": "Success-Response:",          "content": "HTTP/1.1 200 OK\n {\n     \"status\": \"Unfavorited an item\"\n }",          "type": "json"        }      ]    },    "filename": "./app/Http/Controllers/API/V1/FavoritesController.php",    "groupTitle": "Favorite",    "name": "DeleteRepliesReplyFavorites"  },  {    "type": "post",    "url": "/replies/{reply}/favorites",    "title": "Favorite a reply",    "description": "<p>Favorite a reply</p>",    "group": "Favorite",    "permission": [      {        "name": "JWT"      }    ],    "version": "0.1.0",    "success": {      "examples": [        {          "title": "Success-Response:",          "content": "HTTP/1.1 200 OK\n {\n     \"status\": \"Favorite an item\"\n }",          "type": "json"        }      ]    },    "filename": "./app/Http/Controllers/API/V1/FavoritesController.php",    "groupTitle": "Favorite",    "name": "PostRepliesReplyFavorites"  },  {    "type": "get",    "url": "/profiles/{user}",    "title": "Get user activity records",    "description": "<p>Get user activity records</p>",    "group": "Profile",    "permission": [      {        "name": "none"      }    ],    "version": "0.1.0",    "success": {      "examples": [        {          "title": "Success-Response:",          "content": "HTTP/1.1 201 OK\n\n {\n     \"profileUser\": {\n         \"id\": 1,\n         \"name\": \"testUsers\",\n         \"email\": \"admin@123.com\",\n         \"created_at\": \"2017-05-18 19:27:40\",\n         \"updated_at\": \"2017-07-12 04:00:27\"\n     },\n     \"activities\": {\n         \"2017-07-11\": [\n         {\n             \"id\": 2,\n             \"user_id\": 1,\n             \"subject_id\": 8,\n             \"subject_type\": \"App\\\\Models\\\\Reply\",\n             \"type\": \"created_reply\",\n             \"created_at\": \"2017-07-11 06:24:01\",\n             \"subject\": null\n         },\n         {\n             \"id\": 1,\n             \"user_id\": 1,\n             \"subject_id\": 31,\n             \"subject_type\": \"App\\\\Models\\\\Thread\",\n             \"type\": \"created_thread\",\n             \"created_at\": \"2017-07-11 06:22:30\",\n             \"subject\": {\n             \"id\": 31,\n             \"user_id\": 1,\n             \"channel_id\": 1,\n             \"replies_count\": 0,\n             \"title\": \"active_test\",\n             \"body\": \"active_test_body\",\n             \"created_at\": \"2017-07-11 06:22:29\"\n         }\n     }\n     ]\n     }\n }",          "type": "json"        }      ]    },    "filename": "./app/Http/Controllers/API/V1/ProfilesController.php",    "groupTitle": "Profile",    "name": "GetProfilesUser"  },  {    "type": "delete",    "url": "/replies/{reply}",    "title": "Delete a Reply",    "description": "<p>Delete a Reply</p>",    "group": "Reply",    "permission": [      {        "name": "JWT"      }    ],    "version": "0.1.0",    "success": {      "examples": [        {          "title": "Success-Response:",          "content": "HTTP/1.1 204 No Content",          "type": "json"        }      ]    },    "filename": "./app/Http/Controllers/API/V1/RepliesController.php",    "groupTitle": "Reply",    "name": "DeleteRepliesReply"  },  {    "type": "get",    "url": "/threads/{channel}/{thread}/replies",    "title": "Replies List",    "description": "<p>Replies List</p>",    "group": "Reply",    "permission": [      {        "name": "none"      }    ],    "version": "0.1.0",    "success": {      "examples": [        {          "title": "Success-Response:",          "content": "HTTP/1.1 201 OK\n {\n     \"current_page\": 1,\n     \"data\": [\n         {\n             \"id\": 1,\n             \"thread_id\": 6,\n             \"user_id\": 1,\n             \"body\": \"bodyupdate\",\n             \"created_at\": \"2017-07-05 06:39:57\"\n         },\n         {\n             \"id\": 2,\n             \"thread_id\": 6,\n             \"user_id\": 1,\n             \"body\": \"repliesonessds\",\n             \"created_at\": \"2017-07-05 06:40:19\"\n         }\n     ],\n     \"from\": 1,\n     \"last_page\": 1,\n     \"next_page_url\": null,\n     \"path\": \"http://dev-project5.dev/api/threads/illum/6/replies\",\n     \"per_page\": 20,\n     \"prev_page_url\": null,\n     \"to\": 2,\n     \"total\": 2\n }",          "type": "json"        }      ]    },    "filename": "./app/Http/Controllers/API/V1/RepliesController.php",    "groupTitle": "Reply",    "name": "GetThreadsChannelThreadReplies"  },  {    "type": "patch",    "url": "/replies/{reply}",    "title": "Update a Reply",    "description": "<p>Update a Reply</p>",    "group": "Reply",    "permission": [      {        "name": "JWT"      }    ],    "version": "0.1.0",    "parameter": {      "fields": {        "Parameter": [          {            "group": "Parameter",            "type": "String",            "optional": false,            "field": "body",            "description": "<p>body</p>"          }        ]      }    },    "success": {      "examples": [        {          "title": "Success-Response:",          "content": "HTTP/1.1 204 No Content",          "type": "json"        }      ]    },    "error": {      "examples": [        {          "title": "Error-Response:",          "content": "HTTP/1.1 422 Unprocessable Entity\n {\n     \"message\": \"422 Unprocessable Entity\",\n     \"errors\": [\n         {\n             \"field\": \"body\",\n             \"code\": \"The body field is required.\"\n         }\n     ]\n }",          "type": "json"        }      ]    },    "filename": "./app/Http/Controllers/API/V1/RepliesController.php",    "groupTitle": "Reply",    "name": "PatchRepliesReply"  },  {    "type": "post",    "url": "/threads/{channel}/{thread}/replies",    "title": "Create a Reply",    "description": "<p>Create a Reply</p>",    "group": "Reply",    "permission": [      {        "name": "JWT"      }    ],    "version": "0.1.0",    "parameter": {      "fields": {        "Parameter": [          {            "group": "Parameter",            "type": "String",            "optional": false,            "field": "body",            "description": "<p>body</p>"          }        ]      }    },    "success": {      "examples": [        {          "title": "Success-Response:",          "content": "HTTP/1.1 201 Created",          "type": "json"        }      ]    },    "error": {      "examples": [        {          "title": "Error-Response:",          "content": "HTTP/1.1 422 Unprocessable Entity\n {\n     \"message\": \"422 Unprocessable Entity\",\n     \"errors\": [\n         {\n             \"field\": \"body\",\n             \"code\": \"The body field is required.\"\n         }\n     ]\n }",          "type": "json"        }      ]    },    "filename": "./app/Http/Controllers/API/V1/RepliesController.php",    "groupTitle": "Reply",    "name": "PostThreadsChannelThreadReplies"  },  {    "type": "delete",    "url": "threads/{channel}/{thread}/subscriptions",    "title": "Unsubscribe a thread",    "description": "<p>Unsubscribe a thread</p>",    "group": "Subscribe",    "permission": [      {        "name": "JWT"      }    ],    "version": "0.1.0",    "success": {      "examples": [        {          "title": "Success-Response:",          "content": "HTTP/1.1 200 OK\n {\n     \"status\": \"Unsubscribe success\"\n }",          "type": "json"        }      ]    },    "filename": "./app/Http/Controllers/API/V1/ThreadSubscriptionsController.php",    "groupTitle": "Subscribe",    "name": "DeleteThreadsChannelThreadSubscriptions"  },  {    "type": "post",    "url": "threads/{channel}/{thread}/subscriptions",    "title": "Subscribe a thread",    "description": "<p>Subscribe a thread</p>",    "group": "Subscribe",    "permission": [      {        "name": "JWT"      }    ],    "version": "0.1.0",    "success": {      "examples": [        {          "title": "Success-Response:",          "content": "HTTP/1.1 200 OK\n {\n     \"status\": \"Subscribe thread success\"\n }",          "type": "json"        }      ]    },    "filename": "./app/Http/Controllers/API/V1/ThreadSubscriptionsController.php",    "groupTitle": "Subscribe",    "name": "PostThreadsChannelThreadSubscriptions"  },  {    "type": "delete",    "url": "/threads",    "title": "Delete a Thread",    "description": "<p>Delete a Thread</p>",    "group": "Thread",    "permission": [      {        "name": "JWT"      }    ],    "version": "0.1.0",    "success": {      "examples": [        {          "title": "Success-Response:",          "content": "HTTP/1.1 204 No Content",          "type": "json"        }      ]    },    "filename": "./app/Http/Controllers/API/V1/ThreadsController.php",    "groupTitle": "Thread",    "name": "DeleteThreads"  },  {    "type": "get",    "url": "/threads",    "title": "Threads List",    "description": "<p>Threads List</p>",    "group": "Thread",    "permission": [      {        "name": "none"      }    ],    "version": "0.1.0",    "success": {      "examples": [        {          "title": "Success-Response:",          "content": "HTTP/1.1 201 OK\n {\n     \"data\": [\n         {\n             \"id\": 31,\n             \"user_id\": 1,\n             \"channel_id\": 1,\n             \"replies_count\": 0,\n             \"title\": \"active_test\",\n             \"body\": \"active_test_body\",\n             \"created_at\": \"2017-07-11 06:22:29\"\n         },\n         {\n             \"id\": 30,\n             \"user_id\": 1,\n             \"channel_id\": 1,\n             \"replies_count\": 0,\n             \"title\": \"active_test\",\n             \"body\": \"active_test_body\",\n             \"created_at\": \"2017-07-11 06:21:27\"\n         }\n     ],\n     \"meta\": {\n         \"pagination\": {\n         \"total\": 28,\n         \"count\": 15,\n         \"per_page\": 15,\n         \"current_page\": 1,\n         \"total_pages\": 2,\n         \"links\": {\n         \"next\": \"http://dev-project5.dev/api/threads?page=2\"\n         }\n     }\n }",          "type": "json"        }      ]    },    "filename": "./app/Http/Controllers/API/V1/ThreadsController.php",    "groupTitle": "Thread",    "name": "GetThreads"  },  {    "type": "get",    "url": "/threads/{channel}/{thread}",    "title": "Get thread detail",    "description": "<p>Get Thread Detail</p>",    "group": "Thread",    "permission": [      {        "name": "none"      }    ],    "version": "0.1.0",    "success": {      "examples": [        {          "title": "Success-Response:",          "content": "HTTP/1.1 201 OK\n {\n     \"data\": {\n         \"id\": 31,\n         \"user_id\": 1,\n         \"channel_id\": 1,\n         \"replies_count\": 0,\n         \"title\": \"active_test\",\n         \"body\": \"active_test_body\",\n         \"created_at\": \"2017-07-11 06:22:29\"\n     }\n }",          "type": "json"        }      ]    },    "filename": "./app/Http/Controllers/API/V1/ThreadsController.php",    "groupTitle": "Thread",    "name": "GetThreadsChannelThread"  },  {    "type": "post",    "url": "/threads",    "title": "Create a Thread",    "description": "<p>Create a Thread</p>",    "group": "Thread",    "permission": [      {        "name": "JWT"      }    ],    "version": "0.1.0",    "parameter": {      "fields": {        "Parameter": [          {            "group": "Parameter",            "type": "String",            "optional": false,            "field": "title",            "description": "<p>title</p>"          },          {            "group": "Parameter",            "type": "String",            "optional": false,            "field": "body",            "description": "<p>body</p>"          },          {            "group": "Parameter",            "type": "Int",            "optional": false,            "field": "channel_id",            "description": "<p>channel id</p>"          }        ]      }    },    "success": {      "examples": [        {          "title": "Success-Response:",          "content": "HTTP/1.1 201 Created",          "type": "json"        }      ]    },    "error": {      "examples": [        {          "title": "Error-Response:",          "content": "HTTP/1.1 422 Unprocessable Entity\n {\n     \"message\": \"422 Unprocessable Entity\",\n     \"errors\": [\n         {\n             \"field\": \"body\",\n             \"code\": \"The body field is required.\"\n         }\n     ]\n }",          "type": "json"        }      ]    },    "filename": "./app/Http/Controllers/API/V1/ThreadsController.php",    "groupTitle": "Thread",    "name": "PostThreads"  },  {    "type": "put",    "url": "/threads",    "title": "Update a Thread",    "description": "<p>Update a Thread</p>",    "group": "Thread",    "permission": [      {        "name": "JWT"      }    ],    "version": "0.1.0",    "parameter": {      "fields": {        "Parameter": [          {            "group": "Parameter",            "type": "String",            "optional": false,            "field": "title",            "description": "<p>title</p>"          },          {            "group": "Parameter",            "type": "String",            "optional": false,            "field": "body",            "description": "<p>body</p>"          },          {            "group": "Parameter",            "type": "Int",            "optional": false,            "field": "channel_id",            "description": "<p>channel id</p>"          }        ]      }    },    "success": {      "examples": [        {          "title": "Success-Response:",          "content": "HTTP/1.1 204 No Content",          "type": "json"        }      ]    },    "error": {      "examples": [        {          "title": "Error-Response:",          "content": "HTTP/1.1 422 Unprocessable Entity\n {\n     \"message\": \"422 Unprocessable Entity\",\n     \"errors\": [\n         {\n             \"field\": \"body\",\n             \"code\": \"The body field is required.\"\n         }\n     ]\n }",          "type": "json"        }      ]    },    "filename": "./app/Http/Controllers/API/V1/ThreadsController.php",    "groupTitle": "Thread",    "name": "PutThreads"  },  {    "type": "get",    "url": "/user",    "title": "Get current user info",    "description": "<p>Get current user info</p>",    "group": "User",    "permission": [      {        "name": "JWT"      }    ],    "version": "0.1.0",    "success": {      "examples": [        {          "title": "Success-Response:",          "content": "HTTP/1.1 201 OK\n {\n     \"data\": {\n     \"id\": 1,\n     \"name\": \"adminnew\",\n     \"email\": \"admin@123.com\",\n     \"created_at\": \"2017-05-18 19:27:40\",\n     \"updated_at\": \"2017-06-29 05:58:27\"\n     }\n }",          "type": "json"        }      ]    },    "filename": "./app/Http/Controllers/API/V1/UserController.php",    "groupTitle": "User",    "name": "GetUser"  },  {    "type": "get",    "url": "/users",    "title": "Get all users",    "description": "<p>Get all users</p>",    "group": "User",    "permission": [      {        "name": "none"      }    ],    "version": "0.1.0",    "success": {      "examples": [        {          "title": "Success-Response:",          "content": "HTTP/1.1 201 OK\n{\n     \"data\": [\n     {\n         \"id\": 1,\n         \"name\": \"adminnew\",\n         \"email\": \"admin@123.com\",\n         \"created_at\": \"2017-05-18 19:27:40\",\n         \"updated_at\": \"2017-06-29 05:58:27\"\n     },\n     {\n         \"id\": 2,\n         \"name\": \"admin321\",\n         \"email\": \"admin@321.com\",\n         \"created_at\": \"2017-06-29 03:07:00\",\n         \"updated_at\": \"2017-06-29 03:07:00\"\n     }\n     ],\n     \"meta\": {\n         \"pagination\": {\n         \"total\": 2,\n         \"count\": 2,\n         \"per_page\": 15,\n         \"current_page\": 1,\n         \"total_pages\": 1,\n         \"links\": []\n     }\n     }\n }",          "type": "json"        }      ]    },    "filename": "./app/Http/Controllers/API/V1/UserController.php",    "groupTitle": "User",    "name": "GetUsers"  },  {    "type": "get",    "url": "/users/{id}",    "title": "Get one user info",    "description": "<p>Get one user info</p>",    "group": "User",    "permission": [      {        "name": "none"      }    ],    "version": "0.1.0",    "success": {      "examples": [        {          "title": "Success-Response:",          "content": "HTTP/1.1 201 OK\n\n {\n     \"data\": {\n     \"id\": 2,\n     \"name\": \"admin321\",\n     \"email\": \"admin@321.com\",\n     \"created_at\": \"2017-06-29 03:07:00\",\n     \"updated_at\": \"2017-06-29 03:07:00\"\n     }\n }",          "type": "json"        }      ]    },    "filename": "./app/Http/Controllers/API/V1/UserController.php",    "groupTitle": "User",    "name": "GetUsersId"  },  {    "type": "patch",    "url": "/user",    "title": "Update current user info",    "description": "<p>Update current user info</p>",    "group": "User",    "permission": [      {        "name": "JWT"      }    ],    "version": "0.1.0",    "parameter": {      "fields": {        "Parameter": [          {            "group": "Parameter",            "type": "String",            "optional": true,            "field": "name",            "description": "<p>name</p>"          }        ]      }    },    "success": {      "examples": [        {          "title": "Success-Response:",          "content": "HTTP/1.1 200 OK\n {\n     \"data\": {\n         \"id\": 1,\n         \"name\": \"testUsers\",\n         \"email\": \"admin@123.com\",\n         \"created_at\": \"2017-05-18 19:27:40\",\n         \"updated_at\": \"2017-07-12 03:56:21\"\n     }\n }",          "type": "json"        }      ]    },    "filename": "./app/Http/Controllers/API/V1/UserController.php",    "groupTitle": "User",    "name": "PatchUser"  },  {    "type": "post",    "url": "/users",    "title": "Create a user",    "description": "<p>Create a user</p>",    "group": "User",    "permission": [      {        "name": "none"      }    ],    "version": "0.1.0",    "parameter": {      "fields": {        "Parameter": [          {            "group": "Parameter",            "type": "Email",            "optional": false,            "field": "email",            "description": "<p>email[unique]</p>"          },          {            "group": "Parameter",            "type": "String",            "optional": false,            "field": "password",            "description": "<p>password</p>"          },          {            "group": "Parameter",            "type": "String",            "optional": false,            "field": "name",            "description": "<p>name</p>"          }        ]      }    },    "success": {      "examples": [        {          "title": "Success-Response:",          "content": "HTTP/1.1 200 OK\n {\n     \"data\": {\n     \"email\": \"test@1234.com\",\n     \"name\": \"testUsers\",\n     \"updated_at\": \"2017-07-12 03:51:12\",\n     \"created_at\": \"2017-07-12 03:51:12\",\n     \"id\": 4,\n     \"authorization\": {\n         \"data\": {\n             \"id\": \"c82fe531f6e417b75ed7065868128615\",\n             \"token\": \"eyJ0eXAiOiJKV1QiLCJhbGciOiJIUzI1NiJ9.eyJpc3MiOiJodHRwOi8vZGV2LXByb2plY3Q1LmRldi9hcGkvdXNlcnMiLCJpYXQiOjE0OTk4MzE0NzIsImV4cCI6MTQ5OTgzNTA3MiwibmJmIjoxNDk5ODMxNDcyLCJqdGkiOiJvV1JFRkV1REYxdUhPNU1DIiwic3ViIjo0fQ.NlU5hjKVj4T4EBnIkTLhz3SMTFiVfbMjEmldoUY0Jkc\",\n             \"expired_at\": \"2017-07-12 04:51:12\",\n             \"refresh_expired_at\": \"2017-07-26 03:51:12\"\n         }\n         }\n     }\n }",          "type": "json"        }      ]    },    "error": {      "examples": [        {          "title": "Error-Response:",          "content": "HTTP/1.1 422 Unprocessable Entity\n {\n     \"message\": \"422 Unprocessable Entity\",\n     \"errors\": [\n         {\n             \"field\": \"email\",\n             \"code\": \"The email has already been taken.\"\n         }\n     ]\n }",          "type": "json"        }      ]    },    "filename": "./app/Http/Controllers/API/V1/UserController.php",    "groupTitle": "User",    "name": "PostUsers"  },  {    "type": "put",    "url": "/user/password",    "title": "Edit password",    "description": "<p>Edit password</p>",    "group": "User",    "permission": [      {        "name": "JWT"      }    ],    "version": "0.1.0",    "parameter": {      "fields": {        "Parameter": [          {            "group": "Parameter",            "type": "String",            "optional": false,            "field": "old_password",            "description": "<p>Old password</p>"          },          {            "group": "Parameter",            "type": "String",            "optional": false,            "field": "password",            "description": "<p>New password</p>"          },          {            "group": "Parameter",            "type": "String",            "optional": false,            "field": "password_confirmation",            "description": "<p>Confirmation password</p>"          }        ]      }    },    "success": {      "examples": [        {          "title": "Success-Response:",          "content": "HTTP/1.1 204 No Content",          "type": "json"        }      ]    },    "filename": "./app/Http/Controllers/API/V1/UserController.php",    "groupTitle": "User",    "name": "PutUserPassword"  }]
